%YAML 1.1
%TAG !u! tag:unity3d.com,2011:
--- !u!74 &7400000
AnimationClip:
  m_ObjectHideFlags: 0
  m_PrefabParentObject: {fileID: 0}
  m_PrefabInternal: {fileID: 0}
  m_Name: BirdMovAni3
  serializedVersion: 6
  m_Legacy: 0
  m_Compressed: 0
  m_UseHighQualityCurve: 1
  m_RotationCurves: []
  m_CompressedRotationCurves: []
  m_EulerCurves: []
  m_PositionCurves: []
  m_ScaleCurves: []
  m_FloatCurves: []
  m_PPtrCurves:
  - curve:
    - time: 0
      value: {fileID: 21300000, guid: 20061ab71e94cbf419915acba9771d55, type: 3}
    - time: 0.083333336
      value: {fileID: 21300000, guid: 5c8dd4baf61e9b64dbad45a3ef5a5d3a, type: 3}
    - time: 0.16666667
      value: {fileID: 21300000, guid: 49a6b969f8d3379478c919ea96ce1cbc, type: 3}
    - time: 0.25
      value: {fileID: 21300000, guid: d629be1a6ef87464e87226cb6a01d9fa, type: 3}
    - time: 0.33333334
      value: {fileID: 21300000, guid: 5ee2261f662b8794298d362af8fc482c, type: 3}
    - time: 0.41666666
      value: {fileID: 21300000, guid: 89171e389c2f43047ae3c0d45aee79fe, type: 3}
    - time: 0.5
      value: {fileID: 21300000, guid: 664357e83f109ea4aadb69dae474f119, type: 3}
    - time: 0.5833333
      value: {fileID: 21300000, guid: c94d87bbe07c10d4297d36b456d00c5c, type: 3}
    - time: 0.6666667
      value: {fileID: 21300000, guid: 1a4f0a8d2e0a39d40894fd36b2fa0532, type: 3}
    - time: 0.75
      value: {fileID: 21300000, guid: fcc5480778216b24bada23c6787dcd06, type: 3}
    - time: 0.8333333
      value: {fileID: 21300000, guid: 551ab6c6fc2b31249840755325bafa4e, type: 3}
    - time: 0.9166667
      value: {fileID: 21300000, guid: 01f021135aff1ba418d444ff40975526, type: 3}
    attribute: m_Sprite
    path: 
    classID: 212
    script: {fileID: 0}
  m_SampleRate: 12
  m_WrapMode: 0
  m_Bounds:
    m_Center: {x: 0, y: 0, z: 0}
    m_Extent: {x: 0, y: 0, z: 0}
  m_ClipBindingConstant:
    genericBindings:
    - serializedVersion: 2
      path: 0
      attribute: 0
      script: {fileID: 0}
      typeID: 212
      customType: 23
      isPPtrCurve: 1
    pptrCurveMapping:
    - {fileID: 21300000, guid: 20061ab71e94cbf419915acba9771d55, type: 3}
    - {fileID: 21300000, guid: 5c8dd4baf61e9b64dbad45a3ef5a5d3a, type: 3}
    - {fileID: 21300000, guid: 49a6b969f8d3379478c919ea96ce1cbc, type: 3}
    - {fileID: 21300000, guid: d629be1a6ef87464e87226cb6a01d9fa, type: 3}
    - {fileID: 21300000, guid: 5ee2261f662b8794298d362af8fc482c, type: 3}
    - {fileID: 21300000, guid: 89171e389c2f43047ae3c0d45aee79fe, type: 3}
    - {fileID: 21300000, guid: 664357e83f109ea4aadb69dae474f119, type: 3}
    - {fileID: 21300000, guid: c94d87bbe07c10d4297d36b456d00c5c, type: 3}
    - {fileID: 21300000, guid: 1a4f0a8d2e0a39d40894fd36b2fa0532, type: 3}
    - {fileID: 21300000, guid: fcc5480778216b24bada23c6787dcd06, type: 3}
    - {fileID: 21300000, guid: 551ab6c6fc2b31249840755325bafa4e, type: 3}
    - {fileID: 21300000, guid: 01f021135aff1ba418d444ff40975526, type: 3}
  m_AnimationClipSettings:
    serializedVersion: 2
    m_AdditiveReferencePoseClip: {fileID: 0}
    m_AdditiveReferencePoseTime: 0
    m_StartTime: 0
    m_StopTime: 1
    m_OrientationOffsetY: 0
    m_Level: 0
    m_CycleOffset: 0
    m_HasAdditiveReferencePose: 0
    m_LoopTime: 1
    m_LoopBlend: 0
    m_LoopBlendOrientation: 0
    m_LoopBlendPositionY: 0
    m_LoopBlendPositionXZ: 0
    m_KeepOriginalOrientation: 0
    m_KeepOriginalPositionY: 1
    m_KeepOriginalPositionXZ: 0
    m_HeightFromFeet: 0
    m_Mirror: 0
  m_EditorCurves: []
  m_EulerEditorCurves: []
  m_HasGenericRootTransform: 0
  m_HasMotionFloatCurves: 0
  m_GenerateMotionCurves: 0
  m_Events: []
